~,~,~,~,~,~,p,~,s,~
~,~,~,~,~,~,p,~,s,~
~,~,~,~,~,~,p,~,s,~
~,~,~,~,~,~,p,~,~,~
~,~,~,~,t,t,p,~,~,~
o,o,o,~,~,~,~,~,~,~
~,~,~,~,~,~,~,~,~,~
~,~,~,~,~,~,~,~,~,~
~,~,~,~,~,~,~,~,~,~
c,c,c,c,~,~,~,~,~,~
