~,~,~,~,~,~,s,~,~,~
t,t,~,~,~,~,s,p,~,~
~,~,~,~,~,~,s,p,~,~
~,~,~,~,~,~,x,p,~,~
~,c,~,~,~,~,x,p,~,~
~,c,~,~,~,~,x,p,~,~
~,c,~,~,~,~,~,~,~,~
~,c,~,~,~,~,~,~,~,~
~,~,~,~,~,~,~,~,~,~
~,~,~,~,~,~,~,~,~,~
