~,~,~,~,~,~,~,~,~,~
~,~,~,~,~,~,~,~,t,t
~,~,~,~,~,~,~,~,~,~
s,s,s,~,~,~,~,~,~,~
~,~,~,~,~,~,~,~,~,~
c,c,c,c,~,~,~,~,~,~
~,~,~,p,~,~,~,~,~,~
~,~,~,p,~,~,~,~,o,~
~,~,~,p,~,~,~,~,o,~
~,~,~,p,~,~,~,~,o,~
