~,~,~,~,~,~,~,~,~,~
~,~,~,~,~,~,~,~,~,~
~,~,~,~,~,~,~,~,~,~
~,~,~,p,~,~,~,~,~,~
~,~,~,p,~,~,~,~,~,~
~,~,~,p,~,t,~,~,~,~
~,~,~,p,~,c,c,c,c,~
~,~,~,p,~,~,s,~,~,~
~,~,~,~,~,~,s,~,~,~
~,o,o,o,~,~,s,~,~,~
