~,~,~,~,~,~,~,~,~,~
~,~,~,~,~,~,~,~,~,~
~,~,~,~,~,~,~,~,~,o
~,~,~,~,c,c,c,c,~,o
~,p,t,~,s,~,~,~,~,o
~,p,t,~,s,~,~,~,~,~
~,p,t,~,s,~,~,~,~,~
~,p,~,~,~,~,~,~,~,~
~,p,~,~,~,~,~,~,~,~
~,~,~,~,~,~,~,~,~,~
