o,o,o,t,~,~,~,~,~,~
~,~,~,t,~,~,~,~,~,~
~,~,~,t,~,~,~,~,~,~
~,~,~,t,~,~,~,~,~,~
~,~,~,~,~,~,~,~,~,~
~,~,~,~,~,~,~,~,~,~
~,~,~,~,~,~,~,~,~,~
~,p,p,p,p,p,~,~,~,~
~,s,s,s,~,~,~,~,~,~
~,~,~,~,~,c,c,~,~,~
