~,~,~,~,~,~,~,~,~,~
~,o,o,o,~,~,~,~,~,~
~,~,~,~,~,~,~,s,~,~
~,~,~,~,~,~,~,s,~,~
~,~,~,~,~,~,~,s,~,~
~,~,~,~,~,~,~,p,~,~
~,~,~,~,~,~,c,p,~,~
t,~,~,~,~,c,~,p,~,~
t,~,~,~,c,~,~,p,~,~
~,~,~,c,~,~,~,p,~,~
