~,~,~,~,~,~,~,~,~,~
c,c,c,c,~,~,~,~,p,~
o,~,~,~,~,~,~,~,p,~
~,o,~,~,~,~,~,~,p,~
~,~,o,~,~,~,~,~,p,~
~,~,~,~,~,~,~,~,p,~
~,~,~,t,t,~,~,~,~,~
~,~,~,~,~,~,~,~,~,~
~,~,~,~,~,~,~,~,~,~
s,s,s,~,~,~,~,~,~,~
