~,~,~,~,x,x,~,~,~,~
~,~,~,~,~,~,~,~,~,~
~,~,~,~,~,~,~,~,~,~
~,~,~,~,~,~,~,~,~,~
~,~,~,~,~,c,c,c,c,~
~,~,~,~,~,~,~,~,~,o
s,s,s,~,~,~,~,~,~,o
~,~,~,~,~,~,~,~,~,o
~,~,~,~,~,p,p,p,p,p
~,~,~,~,~,~,~,~,~,~
