~,~,~,~,~,~,~,~,~,~
~,~,~,~,~,~,~,~,~,~
p,~,~,~,~,~,~,~,~,~
p,~,~,~,c,c,c,c,~,~
p,~,~,~,~,s,~,s,~,~
p,~,~,~,~,~,s,~,~,~
p,~,t,t,~,~,~,~,~,~
~,~,~,~,~,~,~,~,~,~
~,~,o,o,o,~,~,~,~,~
~,~,~,~,~,~,~,~,~,~
