~,~,~,~,~,~,~,~,~,~
~,~,~,~,~,~,~,~,~,~
~,~,~,~,~,o,o,o,~,~
~,~,~,~,~,~,~,~,~,~
~,~,~,~,~,~,~,~,~,~
~,~,~,~,~,~,~,~,~,~
~,~,p,p,p,p,p,~,~,~
~,~,~,~,~,~,~,~,~,s
~,~,~,~,~,~,~,~,~,s
t,t,x,x,x,x,~,~,~,s
