~,~,~,~,~,~,~,~,~,~
~,~,~,~,~,~,~,~,~,~
~,~,~,~,s,s,s,~,~,~
~,~,~,~,~,~,~,~,p,~
~,~,~,~,~,~,~,~,p,~
~,~,~,~,~,~,~,c,p,~
~,~,~,~,~,~,~,c,~,p
~,~,~,~,~,~,~,c,p,t
~,~,~,~,~,~,~,c,~,t
~,~,~,~,~,~,o,o,o,~
