~,~,~,~,~,~,~,~,~,~
~,s,s,s,~,~,~,~,~,~
~,~,~,~,~,~,~,~,~,~
~,~,~,~,~,~,~,~,~,~
~,~,~,~,~,~,~,~,~,p
~,~,~,~,~,~,~,~,o,p
~,~,~,~,~,~,~,c,o,p
~,~,~,~,c,c,c,~,o,p
~,~,~,~,~,~,~,~,~,p
~,~,~,~,~,t,t,~,~,~
