~,~,~,~,~,~,~,~,~,~
~,~,~,~,~,~,~,s,~,~
~,~,~,t,~,~,~,s,~,~
~,~,~,t,~,~,~,s,~,~
~,~,~,~,~,~,~,~,~,~
~,~,~,~,~,~,~,~,~,~
~,~,~,~,~,~,~,~,~,~
~,~,~,~,p,p,p,p,p,~
~,~,~,c,c,c,c,~,~,~
~,~,o,o,o,~,~,~,~,~
