~,~,~,~,~,~,~,~,~,~
~,~,~,~,~,~,~,s,~,~
~,~,~,~,~,~,~,s,~,~
~,~,~,o,o,o,~,s,~,~
~,~,~,~,~,~,~,~,~,~
~,~,~,~,~,~,~,~,~,~
~,~,t,t,~,p,p,p,p,p
~,~,c,c,c,c,~,~,~,~
~,~,~,~,~,~,~,~,~,~
~,~,~,~,~,~,~,~,~,~
