~,s,~,~,~,~,~,~,~,~
~,s,~,~,~,~,~,~,p,~
~,s,~,~,~,~,~,~,p,~
~,c,~,c,c,~,~,~,p,~
~,~,c,~,~,~,~,~,p,~
t,t,~,~,~,~,~,~,p,~
~,~,~,~,~,~,~,~,~,~
~,~,~,~,o,o,o,~,~,~
~,~,~,~,~,~,~,~,~,~
~,~,~,~,~,~,~,~,~,~
