~,~,~,~,~,~,~,~,~,~
~,~,~,~,~,~,~,~,~,~
~,~,~,~,s,~,o,o,o,~
~,~,c,~,s,~,~,~,~,~
~,~,c,~,s,~,~,~,~,~
~,~,c,~,t,~,~,~,~,p
~,~,c,~,t,~,~,~,~,p
~,~,~,~,~,~,~,~,~,p
~,~,~,~,~,~,~,~,~,p
~,~,~,~,~,~,~,~,~,p
