~,s,s,s,s,s,~,~,~,~
~,~,~,~,~,~,~,~,~,~
~,o,o,o,~,~,~,~,~,~
~,~,~,~,~,~,~,~,~,~
~,~,~,~,~,~,~,~,~,~
~,~,~,~,~,~,~,~,~,~
~,~,~,t,~,c,c,c,c,~
~,~,~,t,~,~,~,~,p,~
~,~,~,~,~,~,~,~,p,~
~,~,~,~,~,~,~,~,p,~
