~,~,~,~,~,~,~,~,~,~
~,~,~,~,~,~,~,~,~,~
~,~,~,~,~,~,x,x,x,x
~,~,~,~,~,~,~,~,~,~
~,~,~,t,t,~,p,~,~,~
~,~,~,~,~,~,p,~,~,~
~,~,~,~,~,~,p,~,~,~
~,~,~,~,~,~,p,~,~,s
~,~,~,~,~,~,p,~,~,s
o,o,o,~,~,~,~,~,~,s
