~,~,~,~,~,~,~,~,~,~
~,~,~,o,o,o,~,~,~,~
~,~,~,~,~,~,~,~,~,t
~,~,~,~,~,~,~,~,~,t
~,~,~,~,~,~,~,~,~,~
~,~,~,~,~,~,~,~,~,~
~,~,~,~,~,~,~,~,~,c
p,p,p,p,p,~,~,~,c,~
~,s,s,s,~,~,~,c,~,~
~,~,~,~,~,~,c,~,~,~
