~,~,~,~,~,~,~,~,s,~
~,~,~,~,~,c,~,~,s,~
o,o,o,~,p,p,p,p,p,t
~,~,~,~,~,c,~,~,s,t
~,~,~,~,~,c,~,~,~,~
~,~,~,~,~,c,~,~,~,~
~,~,~,~,~,~,~,~,~,~
~,~,~,~,~,~,~,~,~,~
~,~,~,~,~,~,~,~,~,~
~,~,~,~,~,~,~,~,~,~
