~,~,~,~,~,~,~,~,~,~
~,~,~,~,~,~,~,~,~,~
~,~,~,~,~,~,~,~,~,~
~,~,~,~,~,c,c,c,c,~
~,t,~,~,~,~,~,~,~,~
~,t,~,~,~,~,~,~,~,~
~,p,p,p,p,p,~,~,~,~
o,o,o,~,~,~,~,~,~,~
s,s,s,~,~,~,~,~,~,~
~,~,~,~,~,~,~,~,~,~
