~,~,~,~,~,~,~,~,~,~
~,~,~,~,~,~,~,~,~,~
~,~,~,~,~,~,~,~,~,s
~,~,~,~,~,~,~,c,~,s
~,~,~,~,~,~,~,c,~,s
~,~,~,~,~,~,~,c,~,~
~,~,~,~,~,~,t,c,~,~
~,~,~,~,~,~,t,o,o,o
~,~,~,~,~,~,~,~,~,~
p,p,p,p,p,~,~,~,~,~
