~,~,~,~,~,~,~,c,~,~
o,~,t,~,~,~,~,c,~,~
o,~,t,p,~,~,~,c,~,~
o,~,~,p,~,~,~,c,~,~
~,~,~,p,~,~,~,~,~,~
~,~,~,p,~,~,~,~,~,~
~,~,~,p,~,~,~,~,~,~
~,~,~,~,~,~,~,~,~,~
~,~,~,~,~,~,~,~,~,~
~,~,~,~,~,~,s,s,s,~
