~,~,~,~,~,~,t,~,~,~
~,~,~,~,~,~,t,s,s,s
~,~,~,~,~,~,~,~,~,~
~,~,~,~,~,~,~,~,~,~
~,~,~,~,~,~,~,x,x,x
~,~,~,~,~,~,~,~,p,~
~,~,~,~,~,~,~,~,p,~
~,~,~,~,~,~,~,~,p,~
~,c,c,c,c,~,~,~,p,~
~,~,~,~,~,~,~,~,p,~
