~,~,~,s,~,~,~,c,c,c
~,~,~,s,~,~,~,~,~,~
o,~,~,s,~,~,~,~,~,p
o,~,~,~,~,~,~,~,~,p
o,~,~,~,~,~,~,~,~,p
~,~,~,~,~,~,~,~,~,p
~,~,~,~,~,~,~,~,~,p
~,~,~,~,~,~,~,~,~,~
~,~,~,~,~,~,~,~,~,~
~,t,t,~,~,~,~,~,~,~
