~,~,~,~,~,c,~,~,~,~
~,~,~,~,~,c,~,~,~,~
~,~,~,~,~,c,~,~,~,~
~,~,~,~,~,c,~,~,~,~
~,~,~,~,~,~,~,~,~,~
p,p,p,p,p,~,o,~,s,~
~,~,~,~,~,~,o,~,s,t
~,~,~,~,~,~,o,~,s,t
~,~,~,~,~,~,~,~,~,~
~,~,~,~,~,~,~,~,~,~
