~,~,~,~,~,~,~,~,~,~
o,o,o,~,~,~,~,~,~,p
~,~,~,~,~,~,~,~,~,p
~,~,~,~,~,~,~,~,~,p
~,s,s,~,~,~,~,~,~,p
c,c,c,c,~,~,~,~,~,p
~,~,~,t,t,~,~,~,~,~
~,~,~,~,~,~,~,~,~,~
~,~,~,~,~,~,~,~,~,~
~,~,~,~,~,~,~,~,~,~
