~,~,~,~,~,~,~,~,~,~
~,~,~,~,~,~,~,~,~,~
~,~,~,~,~,~,~,~,~,~
~,~,~,~,o,o,o,~,~,~
~,~,~,~,~,~,~,~,~,~
~,~,~,~,~,~,~,~,~,~
c,c,c,c,~,p,p,p,p,p
~,~,~,~,~,~,~,~,~,~
t,t,~,s,s,~,~,~,~,~
~,~,~,~,~,~,~,~,~,~
