~,~,~,~,~,~,~,~,~,o
~,~,~,~,~,~,~,~,~,o
~,~,~,~,~,~,~,~,~,o
~,~,p,~,~,~,~,~,~,~
~,~,p,~,c,~,~,~,~,~
~,~,p,~,c,~,~,~,~,~
~,~,p,~,c,~,~,~,~,~
~,~,p,~,c,~,~,~,s,~
~,~,~,~,~,~,~,~,s,~
~,t,t,~,~,~,~,~,s,~
