~,~,~,~,~,~,~,~,~,~
~,~,~,~,~,~,~,~,~,~
~,~,~,~,~,~,~,~,~,~
c,c,c,c,~,~,~,~,t,~
~,~,~,~,s,~,~,~,t,~
~,~,~,~,p,p,p,p,p,~
~,~,~,o,s,~,~,~,~,~
~,~,~,o,s,~,~,~,~,~
~,~,~,o,~,~,~,~,~,~
~,~,~,~,~,~,~,~,~,~
