~,~,~,~,~,~,~,~,~,~
~,~,~,~,~,~,~,~,~,~
s,~,~,~,~,t,~,~,~,~
s,~,~,~,p,t,~,~,~,~
s,~,~,~,p,~,~,~,~,~
~,~,~,~,p,~,~,~,~,~
~,~,~,~,p,~,~,~,~,c
~,~,~,~,p,~,~,~,~,c
~,~,~,~,p,~,~,~,~,c
~,o,o,o,~,~,~,~,~,c
