~,~,~,~,~,~,~,~,~,~
~,~,~,~,~,~,~,~,~,~
~,~,~,~,~,~,~,~,s,~
~,~,~,~,~,~,~,~,s,~
~,~,~,~,~,~,~,~,s,~
~,~,~,~,~,~,~,o,~,~
c,c,c,c,~,~,~,o,~,~
~,~,~,p,p,p,p,p,~,~
~,~,~,~,~,~,~,o,~,~
~,~,~,t,t,~,~,~,~,~
