~,~,~,~,c,c,c,c,~,~
~,~,~,~,~,~,~,~,~,o
~,~,~,~,~,~,~,~,~,o
~,~,~,~,s,~,~,~,~,o
~,~,~,s,~,~,~,~,~,~
~,~,s,p,p,p,p,p,~,~
~,~,~,~,~,~,~,t,t,~
~,~,~,~,~,~,~,~,~,~
~,~,~,~,~,~,~,~,~,~
~,~,~,~,~,~,~,~,~,~
