~,~,~,~,~,~,~,~,~,~
~,~,~,~,o,o,o,~,~,~
~,~,~,~,~,~,~,~,~,~
~,s,s,s,~,~,~,~,~,~
~,~,~,~,~,~,~,~,~,~
~,~,p,p,p,p,p,~,~,~
t,c,c,c,c,t,~,~,~,~
~,~,~,~,~,~,~,~,~,~
~,~,~,~,~,~,~,~,~,~
~,~,~,~,~,~,~,~,~,~
