~,~,s,~,~,~,~,~,~,~
~,~,s,~,~,~,~,~,~,~
~,~,s,~,~,~,~,~,~,~
~,~,s,~,~,~,~,~,p,~
t,~,s,~,~,~,~,~,p,c
t,~,~,~,~,o,o,o,p,c
~,~,~,~,~,~,~,~,~,c
~,~,~,~,~,~,~,~,~,c
~,~,~,~,~,~,~,~,~,~
~,~,~,~,~,~,~,~,~,~
