~,~,c,~,~,~,~,~,~,~
~,~,c,~,~,~,~,~,~,~
~,~,c,~,~,o,o,o,~,~
~,~,c,~,~,~,x,~,~,~
~,~,~,~,~,~,x,~,~,~
~,~,~,~,~,~,~,~,~,~
~,~,~,~,~,~,~,~,~,~
~,~,~,~,~,~,~,~,~,~
p,p,p,p,p,~,s,s,s,~
~,~,~,~,~,~,~,~,~,~
