~,~,~,~,~,~,~,~,~,~
~,~,~,~,~,~,~,~,~,~
~,~,~,~,~,~,~,~,~,~
~,~,~,~,~,~,~,~,~,~
o,o,o,~,~,~,~,~,~,~
~,p,p,p,p,p,~,~,~,~
c,~,~,~,t,~,~,~,~,~
~,c,~,~,t,~,~,~,~,~
~,~,c,~,~,~,s,s,s,~
~,~,~,c,~,~,~,~,~,~
