~,~,~,~,o,o,o,~,~,~
~,~,~,~,~,~,~,~,~,~
~,s,~,~,~,~,~,~,~,~
~,s,~,~,~,~,~,~,~,~
~,s,~,x,x,x,x,x,~,~
~,~,~,~,~,~,~,c,~,~
~,~,~,~,~,~,~,c,~,~
~,~,~,~,~,~,~,c,t,~
~,~,~,~,~,~,~,c,t,~
~,~,~,~,~,~,~,~,~,~
