~,~,~,~,~,~,~,~,~,~
~,~,~,~,~,~,~,~,~,~
~,~,s,~,~,~,~,~,~,o
~,~,s,~,~,~,~,~,c,o
~,~,s,~,~,~,~,c,~,o
~,~,~,~,~,~,c,~,p,~
~,~,~,~,t,c,~,~,p,~
~,~,~,~,t,~,~,~,p,~
~,~,~,~,~,~,~,~,p,~
~,~,~,~,~,~,~,~,p,~
