~,~,~,~,s,s,s,~,~,~
~,~,~,~,~,~,~,~,~,~
~,o,~,~,~,~,~,~,~,~
~,o,~,~,~,p,p,p,p,p
~,o,~,~,~,~,~,~,~,~
~,~,~,~,~,~,~,~,c,~
~,~,~,~,~,~,~,c,~,~
~,~,~,~,~,~,c,~,~,~
~,~,~,~,~,c,~,~,~,~
~,~,t,t,~,~,~,~,~,~
