~,~,t,~,~,~,~,~,~,~
~,s,t,~,~,~,~,~,~,~
~,s,~,~,~,~,~,~,~,~
~,s,~,~,~,~,~,~,~,~
~,~,~,~,~,~,~,~,~,~
~,~,~,~,~,c,~,~,o,~
~,~,c,c,c,~,~,~,o,~
~,~,~,~,~,~,~,~,o,~
~,~,~,~,~,~,~,~,~,~
p,p,p,p,p,~,~,~,~,~
