~,~,~,o,o,~,~,~,~,~
c,c,c,c,~,p,~,~,~,~
~,~,~,~,~,p,~,~,~,~
~,~,~,~,~,p,~,~,~,~
~,~,~,t,~,p,~,~,~,~
~,~,~,t,~,p,~,~,~,~
~,~,~,t,~,~,~,~,~,~
~,~,s,~,~,~,~,~,~,~
~,~,s,~,~,~,~,~,~,~
~,~,s,~,~,~,~,~,~,~
