~,~,p,p,p,p,p,~,~,~
~,~,~,~,~,~,~,~,~,c
~,~,~,~,~,~,~,~,~,c
~,o,o,o,~,~,~,~,~,c
~,~,~,~,~,~,~,~,~,c
~,~,~,~,~,t,~,~,~,~
~,~,~,~,~,t,~,~,~,~
~,~,~,~,~,~,~,~,~,~
~,~,~,~,~,~,~,s,s,s
~,~,~,~,~,~,~,~,~,~
