~,~,p,~,p,p,p,~,~,~
~,~,~,p,~,~,~,~,~,~
~,~,~,~,~,~,~,~,~,~
~,~,~,~,~,~,~,~,~,~
t,t,~,~,~,o,~,~,~,~
~,~,~,~,~,o,~,~,~,~
~,~,~,~,~,o,~,~,~,~
~,~,~,~,~,c,c,c,c,~
~,~,~,~,~,~,~,~,~,~
~,~,~,~,~,~,s,s,s,~
