~,~,~,~,~,~,~,~,~,~
~,~,~,~,~,~,~,~,~,~
~,~,~,~,o,o,~,c,~,~
p,~,~,~,~,~,~,c,~,~
p,~,~,~,~,~,~,c,~,~
p,~,~,~,~,~,~,c,~,~
p,~,~,~,~,~,~,~,~,~
p,~,~,~,~,~,~,s,s,s
~,~,~,~,~,~,~,~,~,~
~,t,t,~,~,~,~,~,~,~
