~,~,~,~,~,~,~,~,~,~
~,~,~,~,~,~,~,~,o,~
~,~,~,~,~,~,~,~,o,~
~,~,~,~,~,~,~,~,o,~
~,p,~,c,c,c,c,~,~,~
~,p,~,~,~,~,~,~,~,~
~,p,~,~,~,~,~,~,~,~
t,p,~,~,~,~,~,~,~,~
t,p,~,~,s,~,~,~,~,~
~,~,~,s,~,s,~,~,~,~
