~,~,~,~,~,~,~,~,~,~
~,~,~,~,t,t,~,~,~,~
~,~,~,p,~,s,s,s,~,~
~,~,~,p,~,~,~,~,~,~
~,~,~,p,~,~,~,~,~,~
~,~,~,p,~,~,~,~,~,~
~,~,~,p,~,~,~,~,~,~
c,c,c,c,~,~,~,~,~,~
~,~,~,~,~,~,~,~,~,~
~,~,o,~,o,o,~,~,~,~
