~,~,~,~,~,~,~,~,s,~
~,~,~,~,~,~,~,~,s,c
~,~,~,~,~,~,~,~,s,c
~,~,~,~,~,~,~,~,s,c
~,~,~,~,~,~,~,~,s,c
~,~,~,~,~,~,~,~,~,~
o,~,~,~,~,~,~,~,~,~
o,~,~,~,t,t,~,~,p,~
o,~,~,~,~,~,~,~,p,~
~,~,~,~,~,~,~,~,p,~
