~,~,~,o,o,o,~,~,~,~
~,~,~,~,~,~,~,~,~,~
s,s,s,~,~,~,~,~,~,~
~,~,~,~,~,~,~,~,~,~
~,~,~,~,~,~,~,c,~,~
~,~,~,~,p,p,p,p,p,~
~,~,~,~,~,~,~,c,~,~
~,~,~,~,~,~,~,c,~,t
~,~,~,~,~,~,~,c,~,t
~,~,~,~,~,~,~,~,~,~
