~,~,~,~,~,~,~,~,~,~
o,~,~,~,~,~,p,~,~,~
o,~,s,~,~,~,p,~,~,~
o,~,s,~,~,~,p,~,~,~
~,~,s,~,~,~,p,~,~,~
c,~,s,~,~,~,p,~,~,~
c,~,~,~,~,~,~,~,~,~
c,~,~,~,~,~,~,~,~,~
c,~,~,~,~,~,~,~,~,~
~,~,~,~,t,t,~,~,~,~
