~,~,~,~,~,~,~,~,p,~
t,t,~,~,~,~,~,~,p,~
~,~,~,~,~,~,~,~,p,~
~,~,~,~,~,~,~,~,p,~
c,~,~,~,~,~,~,~,p,~
c,~,~,~,~,~,~,~,~,~
c,~,o,o,o,~,~,~,~,~
c,~,~,~,~,~,~,~,~,~
~,~,~,~,~,~,~,~,~,~
~,~,~,~,~,s,s,s,~,~
