~,~,~,t,~,~,~,~,~,~
~,~,~,t,~,~,~,~,~,~
~,~,~,~,~,~,~,~,~,~
s,s,s,~,~,~,~,~,~,~
~,o,o,o,~,~,p,~,~,~
~,~,~,~,~,~,p,~,~,~
~,~,~,~,~,~,p,~,~,~
c,c,c,c,~,~,p,~,~,~
~,~,~,~,~,~,p,~,~,~
~,~,~,~,~,~,~,~,~,~
