~,~,~,~,~,~,~,~,~,~
~,~,~,~,~,~,~,~,~,~
~,~,~,~,~,~,~,~,~,~
~,~,~,~,~,~,~,~,~,~
~,~,~,p,~,~,~,~,~,t
~,~,c,p,~,~,~,~,~,t
~,~,c,p,~,~,~,~,~,t
~,~,c,p,~,~,~,~,~,~
s,~,c,p,~,~,o,o,o,~
s,~,~,~,~,~,~,~,~,~
