~,~,~,~,c,c,c,~,~,~
~,~,~,~,~,~,~,~,~,~
~,~,~,~,~,~,~,~,~,~
~,~,~,s,p,~,~,~,~,~
~,o,~,s,p,~,~,~,~,~
~,o,~,s,p,~,~,~,~,~
~,o,~,~,p,~,~,~,~,~
~,o,~,~,p,~,~,~,~,~
~,~,~,~,~,~,~,~,t,t
~,~,~,~,~,~,~,~,~,~
