~,~,~,~,~,~,~,~,~,~
~,~,~,~,~,~,~,~,~,~
~,~,~,~,~,~,o,c,~,~
~,~,~,~,~,~,o,c,~,~
~,~,~,~,~,~,o,c,~,s
~,~,~,~,~,~,~,~,~,s
~,~,~,~,p,p,p,p,p,s
~,~,t,~,~,~,~,~,~,~
~,~,t,~,~,~,~,~,~,~
~,~,~,~,~,~,~,~,~,~
