~,~,c,~,~,~,~,~,~,~
~,~,c,~,~,~,~,~,~,~
~,~,c,~,~,~,~,~,~,~
~,~,c,~,~,~,~,~,~,~
~,~,p,p,p,p,p,~,~,~
~,~,o,o,o,~,~,~,s,~
~,~,~,~,~,~,~,~,s,~
~,~,~,~,~,~,~,~,s,~
~,~,~,~,t,t,~,~,~,~
~,~,~,~,~,~,~,~,~,~
