~,~,~,~,~,~,~,~,~,~
~,~,~,~,~,~,s,s,s,~
~,~,p,p,p,p,p,~,~,~
~,~,~,~,~,~,~,t,t,~
~,~,~,~,~,~,~,~,~,c
~,~,x,x,x,~,~,~,~,c
~,~,~,~,~,~,~,~,~,c
~,~,~,~,~,~,~,~,~,c
~,~,~,~,~,~,~,~,~,~
~,~,~,~,~,~,~,~,~,~
