~,~,~,~,~,~,~,~,~,~
~,~,~,~,~,~,~,~,~,~
~,~,~,~,~,~,~,~,~,~
~,~,~,~,~,~,~,~,~,~
~,~,~,~,c,c,c,c,p,~
~,~,~,~,~,~,~,o,p,~
~,~,~,~,s,s,s,o,p,~
~,~,~,~,~,t,~,~,p,~
~,~,~,~,~,t,~,o,p,~
~,~,~,~,~,~,~,~,~,~
