~,~,~,~,~,~,~,~,~,~
~,~,~,~,~,~,~,~,~,~
~,~,~,~,~,~,~,~,~,~
~,~,~,~,~,~,~,~,~,~
~,~,~,~,~,c,c,c,c,~
~,~,~,~,~,~,o,o,o,~
~,~,~,~,~,p,p,p,p,p
~,~,~,~,~,~,~,~,~,~
~,~,~,~,~,~,~,t,~,~
~,~,~,s,s,s,~,t,~,~
