~,~,~,~,~,~,t,~,~,~
~,s,s,s,~,~,t,~,~,~
~,~,~,~,~,~,~,~,~,~
~,~,~,~,~,~,~,~,~,~
p,~,c,c,c,c,~,~,~,~
p,~,~,~,~,~,~,~,~,~
p,~,~,~,~,~,~,~,o,~
p,~,~,~,~,~,~,~,o,~
p,~,~,~,~,~,~,~,o,~
~,~,~,~,~,~,~,~,~,~
