~,~,~,~,~,~,~,~,~,~
~,~,~,~,~,~,~,~,~,~
~,~,~,~,~,~,~,~,~,~
~,~,~,~,~,~,~,~,~,~
~,~,~,~,~,~,~,~,~,~
~,~,~,~,~,~,s,~,~,~
~,p,p,p,p,~,s,~,~,~
~,~,~,~,~,p,s,~,~,~
~,~,c,c,c,c,~,~,~,~
~,t,t,~,~,~,o,o,o,~
