~,~,~,~,~,~,~,~,~,~
~,~,~,~,~,~,~,~,~,~
p,~,~,~,~,~,~,~,~,~
p,~,~,~,~,~,~,~,~,~
p,c,~,~,~,~,~,o,~,~
p,c,~,~,~,~,~,o,t,t
p,c,~,~,~,~,~,o,~,~
~,c,~,~,~,~,~,~,~,~
~,~,~,~,~,~,~,~,~,~
~,~,~,~,s,s,s,s,~,~
