~,~,~,~,t,c,c,c,c,~
~,~,~,~,s,s,s,~,~,~
~,~,~,~,t,~,~,~,~,~
~,p,p,p,p,p,~,~,~,~
~,~,~,~,~,~,~,~,~,~
~,~,~,~,~,~,~,~,~,~
~,~,~,~,~,~,~,o,~,~
~,~,~,~,~,~,~,o,~,~
~,~,~,~,~,~,~,o,~,~
~,~,~,~,~,~,~,~,~,~
