~,~,~,~,~,~,~,~,~,~
~,~,~,~,~,~,~,~,~,~
~,~,~,t,t,~,~,~,~,~
~,~,~,~,~,~,~,~,~,~
c,~,~,~,~,~,~,~,~,~
c,~,~,~,~,~,~,~,~,~
c,~,~,~,~,~,~,~,~,~
c,~,~,~,~,p,p,p,p,p
~,~,~,~,~,x,x,x,~,~
~,~,~,~,s,s,s,~,~,~
