~,~,~,~,~,~,~,~,~,~
~,~,~,~,~,~,~,~,~,~
~,c,~,~,p,~,~,~,~,~
~,c,~,~,p,~,~,~,~,~
~,c,~,~,p,~,~,~,~,~
~,c,~,t,p,s,~,~,~,~
~,c,~,t,p,s,~,~,~,~
~,~,~,~,~,s,~,~,o,~
~,~,~,~,~,~,~,~,o,~
~,~,~,~,~,~,~,~,o,~
