~,~,~,~,~,p,~,~,~,~
~,~,c,s,~,p,~,~,~,~
~,~,c,s,~,p,~,~,~,~
~,~,c,s,~,p,~,~,~,~
~,~,~,~,~,p,~,~,~,~
~,~,c,~,~,~,~,~,~,~
~,~,~,~,~,~,~,~,~,~
~,~,~,~,~,~,~,~,~,~
o,o,o,~,~,~,~,~,~,~
~,~,~,~,t,t,~,~,~,~
