~,~,~,~,~,~,~,~,~,~
~,~,o,o,o,~,~,~,~,~
~,~,~,~,~,~,~,~,~,~
~,~,~,~,~,~,~,~,~,~
~,~,~,~,~,~,~,~,~,~
~,c,~,~,~,~,~,~,~,~
~,c,~,t,p,p,p,p,p,~
~,c,~,t,~,~,~,~,~,~
~,~,~,s,s,s,~,~,~,~
~,~,~,~,~,~,~,~,~,~
