~,~,p,~,~,~,~,~,~,~
~,~,p,~,~,~,~,~,~,~
~,~,p,~,~,~,~,s,~,c
~,~,p,~,~,~,~,s,~,c
~,p,~,~,~,t,~,s,~,c
~,~,~,~,~,t,~,~,~,c
~,~,~,~,~,~,~,~,~,~
~,~,~,~,~,o,o,o,~,~
~,~,~,~,~,~,~,~,~,~
~,~,~,~,~,~,~,~,~,~
