~,~,~,~,~,~,s,s,s,~
~,~,~,~,~,~,~,~,~,~
~,~,~,~,~,~,~,~,~,~
~,~,~,~,~,~,~,~,~,~
~,~,~,~,~,~,c,~,~,~
~,~,~,~,o,~,c,~,~,~
~,~,~,~,o,~,c,p,~,~
~,~,~,~,o,~,c,p,~,~
~,~,~,~,o,~,t,p,~,~
~,~,~,~,o,~,t,~,~,~
