~,~,~,~,~,~,~,~,~,~
~,~,o,~,~,~,~,~,~,~
~,~,o,s,s,s,~,~,~,~
~,~,o,~,~,~,~,x,~,~
~,~,~,~,~,~,~,x,~,~
~,~,~,~,~,~,~,x,~,~
~,~,~,~,~,~,~,x,~,~
c,c,c,c,~,~,~,x,~,~
t,~,~,~,~,~,~,~,~,~
t,~,~,~,~,~,~,~,~,~
