~,~,~,~,~,~,t,o,~,~
~,~,~,~,~,~,t,~,o,~
~,~,~,~,~,~,~,~,o,~
~,~,~,~,~,~,~,~,s,~
~,~,~,~,~,~,~,~,s,~
~,~,~,~,~,~,~,~,s,~
~,~,~,~,~,~,~,~,~,~
~,~,~,~,~,~,~,~,~,~
~,~,~,c,c,c,c,~,~,~
~,~,~,~,p,p,p,p,p,~
