~,~,~,~,c,p,p,p,p,p
~,~,~,~,c,~,~,~,~,~
~,~,~,~,c,~,~,~,~,~
~,~,~,s,c,~,~,~,o,~
~,~,~,s,~,~,~,o,~,~
~,~,~,s,~,~,o,~,~,~
~,~,~,~,~,~,~,~,~,~
~,~,~,~,~,~,~,~,~,~
~,~,~,t,~,~,~,~,~,~
~,~,~,t,~,~,~,~,~,~
