~,~,~,~,~,~,~,~,~,~
~,~,~,~,p,~,~,~,~,~
~,~,~,~,p,~,~,~,~,~
~,~,~,~,~,p,~,~,~,~
~,~,~,~,p,~,~,o,o,o
~,~,~,~,p,~,~,~,~,~
~,~,~,~,~,~,~,~,~,t
~,~,~,~,~,~,~,~,~,t
~,~,~,~,~,~,~,~,~,~
~,~,c,c,c,c,~,s,s,s
