~,~,~,~,~,~,~,~,~,~
o,o,o,~,~,~,~,s,~,~
p,p,p,p,p,c,c,c,c,~
~,~,~,~,~,~,~,s,~,~
~,~,~,~,~,~,~,s,~,~
~,~,~,~,~,~,~,~,~,~
~,~,~,~,~,~,~,~,~,t
~,~,~,~,~,~,~,~,~,t
~,~,~,~,~,~,~,~,~,~
~,~,~,~,~,~,~,~,~,~
