~,~,~,~,~,~,~,~,~,~
~,~,~,~,~,~,~,~,~,~
~,c,c,c,~,~,~,~,~,o
~,~,~,~,~,~,~,~,~,o
~,~,~,~,~,~,p,~,~,o
t,t,~,~,~,~,p,~,~,~
~,~,~,~,~,~,p,~,~,~
~,~,~,~,~,~,p,~,~,~
~,~,~,~,~,~,p,~,~,~
~,~,~,~,s,s,s,~,~,~
