~,~,~,~,~,~,~,~,~,~
~,~,~,~,~,~,~,~,~,~
~,~,~,~,~,~,~,c,~,~
~,~,~,~,~,~,s,c,~,~
~,~,~,~,~,~,s,c,~,~
~,~,~,~,~,~,s,c,~,~
t,x,x,x,x,x,~,~,~,~
t,o,o,o,~,~,~,~,~,~
~,~,~,~,~,~,~,~,~,~
~,~,~,~,~,~,~,~,~,~
