~,~,~,~,p,~,~,~,~,~
~,~,~,~,p,~,~,~,~,~
~,~,~,~,p,~,~,~,~,~
~,~,t,t,p,~,~,~,~,~
~,~,~,~,p,~,~,s,s,s
~,~,~,~,~,~,~,~,~,~
~,~,~,~,~,~,c,c,c,~
~,~,~,~,~,~,~,~,~,~
o,o,o,o,~,~,~,~,~,~
~,~,~,~,~,~,~,~,~,~
