~,~,~,~,~,~,~,~,~,~
~,~,~,~,~,~,~,~,~,~
~,~,~,~,~,~,~,~,s,~
~,~,~,p,p,p,p,p,s,~
o,o,o,~,~,~,~,~,s,~
~,~,~,~,~,~,~,~,s,~
~,~,~,~,~,~,~,~,~,~
~,~,~,~,~,~,~,~,~,~
~,~,~,~,t,t,~,~,~,~
~,~,~,~,c,c,c,~,~,~
