~,~,~,~,~,~,~,o,~,~
~,~,~,~,~,~,~,o,~,~
p,~,~,c,~,~,s,s,s,~
p,~,t,c,t,~,~,o,~,~
p,~,~,c,~,~,~,~,~,~
p,~,~,c,~,~,~,~,~,~
p,~,~,~,~,~,~,~,~,~
~,~,~,~,~,~,~,~,~,~
~,~,~,~,~,~,~,~,~,~
~,~,~,~,~,~,~,~,~,~
