~,~,~,~,~,~,~,~,~,~
~,~,~,~,~,~,~,~,p,~
~,~,o,o,o,~,~,~,p,~
~,~,~,~,~,~,~,~,p,~
~,~,~,~,~,~,~,~,p,~
~,~,~,~,~,~,~,~,p,~
~,~,c,c,c,c,~,~,~,~
~,~,~,~,~,~,~,~,~,~
~,~,~,~,~,~,~,~,~,~
s,s,s,~,~,~,t,~,t,~
