~,~,~,~,~,~,~,~,~,~
~,~,~,~,~,~,~,~,~,~
~,c,~,~,~,p,~,~,~,~
~,c,~,o,o,p,o,~,~,~
~,c,~,~,~,p,~,~,~,~
~,c,~,~,~,p,~,~,~,~
~,~,~,~,~,p,~,~,~,~
~,~,~,~,~,~,~,~,~,~
~,~,~,~,s,s,s,~,~,~
t,t,~,~,~,~,~,~,~,~
