~,~,~,~,~,~,~,~,~,~
~,~,~,~,~,~,~,~,~,~
~,~,~,~,~,~,~,~,~,~
~,~,~,~,~,~,~,~,~,~
~,~,~,~,~,~,p,~,~,~
~,~,~,~,~,~,p,~,~,~
~,~,~,c,c,c,p,c,~,~
~,~,~,~,o,o,p,o,~,t
~,~,~,~,~,~,p,~,~,t
~,~,s,s,s,~,~,~,~,~
