~,~,~,~,~,~,~,~,~,~
~,~,~,~,~,~,~,~,s,~
~,~,~,~,~,~,~,~,s,~
~,c,~,~,~,~,~,~,s,~
~,c,~,~,~,~,~,~,~,~
~,c,~,~,~,~,~,~,~,~
o,c,~,~,~,t,~,~,~,~
o,~,~,~,p,p,p,p,p,~
o,~,~,~,~,t,~,~,~,~
~,~,~,~,~,~,~,~,~,~
