~,~,~,~,~,~,~,~,~,~
~,~,~,~,~,~,~,~,~,~
~,~,~,~,p,p,p,p,p,~
~,~,~,~,~,~,~,~,~,~
~,~,~,~,~,~,~,~,~,~
~,~,~,~,~,~,~,~,~,~
~,~,~,~,~,~,~,~,s,~
~,x,x,~,~,~,o,~,s,~
~,c,c,c,c,~,o,~,s,~
~,~,~,~,~,~,o,~,~,~
