~,~,~,~,t,~,~,~,~,~
~,~,~,~,t,~,~,~,~,~
~,~,~,~,~,~,~,~,~,~
~,~,~,~,~,~,~,~,~,~
~,~,~,~,p,p,p,p,p,p
~,~,~,~,~,~,~,s,~,~
~,~,~,~,~,~,o,s,~,~
~,c,c,c,c,~,o,s,~,~
~,~,~,~,~,~,o,~,~,~
~,~,~,~,~,~,~,~,~,~
