~,~,~,s,~,~,~,~,~,~
~,o,~,s,~,~,~,~,~,~
~,o,~,s,~,~,~,t,~,~
~,~,~,~,~,~,~,t,~,~
~,~,~,~,~,~,p,t,~,~
~,~,~,~,~,~,p,~,~,~
~,~,~,~,~,~,p,~,~,~
~,~,~,~,~,~,p,~,~,~
~,~,~,~,~,~,p,~,~,~
~,~,~,~,~,c,c,c,c,~
