~,~,~,~,~,c,~,~,~,~
~,~,~,~,~,c,~,~,~,~
~,t,~,~,~,c,~,~,~,~
~,t,s,s,s,c,~,~,~,~
~,~,~,~,~,~,~,x,~,~
~,~,~,~,~,~,~,x,~,~
~,~,~,~,~,~,~,x,~,~
~,~,~,~,~,~,~,~,~,~
~,~,~,~,~,~,~,~,~,~
~,~,p,p,p,p,p,~,~,~
