~,~,~,~,~,~,~,~,~,~
~,~,~,~,~,~,c,c,c,c
~,~,p,~,~,~,~,~,~,~
~,~,~,p,~,~,~,~,~,~
~,~,~,~,p,~,~,~,o,~
~,~,s,s,s,p,~,~,o,~
~,~,~,~,~,~,p,~,o,~
~,~,~,~,~,~,~,t,~,~
~,~,~,~,~,~,~,t,~,~
~,~,~,~,~,~,~,~,~,~
