~,~,~,~,~,~,~,~,~,~
~,~,~,~,~,~,~,p,~,~
o,~,~,~,~,~,~,p,~,~
o,~,~,~,~,~,~,p,~,~
o,~,~,~,~,~,~,p,~,~
~,~,~,~,~,s,~,p,~,~
~,t,c,c,c,c,t,~,~,~
~,~,~,~,~,s,~,~,~,~
~,~,~,~,~,s,~,~,~,~
~,~,~,~,~,~,~,~,~,~
