~,p,~,~,~,~,~,~,~,~
~,p,~,~,~,~,~,~,~,~
~,p,~,~,~,~,~,~,~,~
~,p,~,s,s,s,~,~,~,~
~,p,~,~,~,~,~,~,~,~
o,o,o,~,~,~,~,~,~,~
~,~,~,~,~,~,~,~,~,~
~,~,~,~,~,~,~,~,~,~
~,~,~,~,t,~,~,~,~,~
c,c,c,c,~,~,~,~,~,~
