s,~,~,~,~,~,~,~,~,~
s,~,~,~,~,~,o,~,~,~
s,~,~,~,~,~,o,~,~,~
~,~,~,~,t,~,o,~,~,~
~,~,~,~,p,p,p,p,p,~
~,~,~,c,c,c,c,~,~,~
~,~,~,~,t,~,~,~,~,~
~,~,~,~,~,~,~,~,~,~
~,~,~,~,~,~,~,~,~,~
~,~,~,~,~,~,~,~,~,~
