~,~,~,~,~,~,~,t,t,~
~,~,~,~,~,s,~,~,~,~
~,~,p,p,p,p,p,~,~,~
~,~,~,~,~,s,~,~,~,~
~,~,~,~,~,s,~,~,~,~
~,~,~,~,~,~,~,~,~,o
~,~,~,~,~,~,~,~,~,o
~,~,~,~,~,~,~,~,~,o
~,c,c,c,c,~,~,~,~,~
~,~,~,~,~,~,~,~,~,~
