~,~,~,~,~,~,t,~,~,~
~,~,~,~,~,~,t,~,~,~
~,~,~,~,~,~,~,~,~,~
~,~,o,~,~,~,~,~,~,~
~,~,s,s,s,~,~,~,p,~
~,~,o,~,~,~,~,~,p,~
~,~,o,~,~,~,~,~,p,~
~,~,~,~,~,~,~,~,p,~
c,c,c,c,~,~,~,~,p,~
~,~,~,~,~,~,~,~,~,~
