~,~,~,~,~,~,~,~,p,~
t,~,~,~,o,~,~,~,p,~
t,~,~,~,o,~,~,s,p,~
~,~,~,~,o,~,~,s,p,~
~,~,~,~,~,~,~,s,p,~
~,~,~,~,~,~,~,~,~,~
~,~,~,~,~,~,~,~,~,~
~,~,~,~,~,~,~,~,~,~
~,~,~,~,~,~,c,c,c,~
~,~,~,~,~,~,~,~,~,~
