~,~,~,~,~,~,p,~,~,~
~,x,x,x,x,~,p,~,~,~
~,~,~,~,~,~,p,~,~,~
~,~,~,o,~,~,p,~,~,~
~,~,~,o,~,~,p,~,~,~
~,~,~,o,~,~,~,~,~,t
~,~,~,~,~,~,~,~,~,t
~,~,~,~,s,s,s,~,~,~
~,~,~,~,~,~,~,~,~,~
~,~,~,~,~,~,~,~,~,~
