~,~,~,~,~,s,~,~,~,~
~,~,~,~,~,c,~,~,~,~
o,~,~,~,t,c,t,~,~,~
o,~,~,~,~,c,~,p,~,~
o,~,~,~,~,c,~,p,~,~
~,~,~,~,~,s,~,p,~,~
~,~,~,~,~,s,~,p,~,~
~,~,~,~,~,~,~,p,~,~
~,~,~,~,~,~,~,~,~,~
~,~,~,~,~,~,~,~,~,~
