~,~,~,o,~,c,~,~,~,~
~,~,~,o,~,c,~,~,~,~
~,~,~,o,~,c,~,p,s,~
~,~,~,~,~,c,~,p,s,~
~,~,~,~,~,~,~,p,s,~
~,~,~,~,~,~,~,p,~,~
~,~,~,~,~,~,~,p,~,~
~,~,~,~,~,t,~,~,~,~
~,~,~,~,~,~,t,~,~,~
~,~,~,~,~,~,~,~,~,~
