~,~,~,~,s,s,s,~,~,~
~,~,~,~,~,~,~,~,~,~
~,~,~,~,~,~,~,~,p,~
~,~,~,~,~,~,~,~,p,~
~,~,~,~,~,~,~,~,p,~
~,~,~,~,~,~,~,~,p,o
~,~,~,~,~,~,~,~,p,o
~,~,~,~,~,~,~,~,~,o
~,~,c,c,c,~,~,~,~,o
~,~,t,t,~,~,~,~,~,~
