~,~,~,~,~,~,~,~,~,~
~,~,~,~,~,o,~,x,~,~
~,~,~,~,~,o,~,x,~,~
~,c,~,~,~,o,~,x,s,~
~,c,~,~,~,~,~,x,s,~
~,c,~,~,~,~,~,x,s,~
~,c,~,~,~,~,~,~,~,~
~,~,~,~,t,~,~,~,~,~
~,~,~,~,t,~,~,~,~,~
~,~,~,~,~,~,~,~,~,~
