~,~,~,~,~,c,~,~,~,~
~,~,~,~,c,~,~,~,~,~
~,~,~,c,~,~,~,~,~,~
~,~,c,~,~,~,~,~,~,~
~,~,s,~,~,~,~,~,~,t
~,~,s,p,p,p,p,p,~,t
~,o,s,~,~,~,~,~,~,~
~,o,~,~,~,~,~,~,~,~
~,o,~,~,~,~,~,~,~,~
~,~,~,~,~,~,~,~,~,~
