~,~,~,~,~,~,~,~,~,~
~,~,~,~,~,~,~,~,~,~
~,~,~,~,~,~,~,~,~,~
~,~,~,~,~,~,~,~,~,~
~,~,~,~,~,~,~,~,~,o
~,~,~,~,s,s,s,~,~,o
~,~,~,~,~,~,~,~,~,o
~,~,~,p,p,p,p,p,~,~
~,~,~,~,c,c,c,c,~,~
~,~,~,~,~,~,x,x,~,~
