~,~,~,~,~,~,~,~,~,p
~,~,~,~,~,~,~,t,t,p
~,~,~,~,~,~,s,~,~,p
~,~,~,~,~,~,s,~,~,p
~,~,~,~,~,~,s,~,~,p
~,~,~,~,~,~,~,~,~,~
~,~,~,~,~,~,~,~,~,~
~,~,~,~,~,~,~,~,~,~
~,~,c,c,c,c,~,~,~,~
~,~,~,~,~,~,o,o,o,~
