~,~,~,~,~,~,~,~,~,~
~,~,~,~,~,~,~,~,~,~
~,~,~,~,~,~,~,o,o,o
~,~,~,~,~,~,~,s,~,~
~,~,~,~,~,~,~,s,~,~
~,~,~,~,~,~,~,s,~,~
~,~,c,c,c,c,~,~,~,t
p,p,p,p,p,~,~,~,~,t
~,~,~,~,~,~,~,~,~,~
~,~,~,~,~,~,~,~,~,~
