~,~,~,~,~,~,~,~,~,~
~,s,~,~,p,~,~,~,~,~
~,s,t,~,p,~,o,~,~,~
~,s,c,~,p,~,o,~,~,~
~,~,c,~,p,~,o,~,~,~
~,~,c,~,p,~,~,~,~,~
~,~,c,~,~,~,~,~,~,~
~,~,t,~,~,~,~,~,~,~
~,~,~,~,~,~,~,~,~,~
~,~,~,~,~,~,~,~,~,~
