~,~,~,~,~,~,~,~,~,~
~,~,~,~,~,~,~,~,~,~
~,~,~,c,c,c,c,p,p,p
~,~,~,~,~,~,~,~,~,~
o,~,~,s,s,s,~,~,~,~
o,~,~,~,~,~,~,~,~,~
o,~,~,~,~,~,~,~,~,~
o,~,~,~,~,~,~,~,~,~
o,~,~,~,~,~,~,~,~,~
~,~,~,~,~,~,~,t,t,~
