~,~,~,~,~,~,~,~,~,~
~,x,~,~,t,t,~,~,~,~
~,x,~,~,~,~,~,~,~,~
~,x,~,~,~,~,~,~,~,~
~,p,p,p,p,p,~,~,~,~
~,~,~,~,~,~,~,~,~,~
~,~,~,~,~,~,s,s,s,~
~,~,~,~,~,~,~,~,~,~
~,~,~,c,c,c,c,~,~,~
~,~,~,~,~,~,~,~,~,~
