~,~,~,~,~,~,~,~,~,~
~,~,~,~,~,~,~,c,~,~
~,~,~,o,t,~,~,c,~,~
~,~,~,o,t,~,~,c,~,~
~,~,~,o,~,~,~,c,~,~
~,~,p,~,~,~,~,~,~,~
~,~,p,~,~,~,~,~,~,~
~,~,p,~,~,~,~,~,~,~
~,~,p,~,~,~,~,~,~,~
~,~,p,~,~,~,s,s,s,~
