~,s,o,o,o,~,~,~,~,~
~,s,~,~,~,~,~,~,~,~
~,s,~,~,~,~,c,c,c,~
~,s,~,~,~,t,t,~,~,~
~,~,~,~,~,~,~,~,~,~
~,~,~,~,~,p,p,p,p,p
~,~,~,~,~,~,~,~,~,~
~,~,~,~,~,~,~,~,~,~
~,~,~,~,~,~,~,~,~,~
~,~,~,~,~,~,~,~,~,~
