~,~,~,~,~,~,~,~,~,~
~,~,~,~,~,~,~,~,~,~
~,~,s,s,s,s,~,~,~,~
~,~,~,~,~,~,t,t,~,~
~,~,c,c,c,c,p,~,~,~
~,~,~,~,~,~,p,~,~,~
~,~,~,o,~,~,p,~,~,~
~,~,~,o,~,~,p,~,~,~
~,~,~,o,~,~,p,~,~,~
~,~,~,~,~,~,~,~,~,~
