~,~,~,~,~,~,~,~,~,~
~,~,~,~,~,~,~,s,~,~
~,~,~,~,~,~,p,s,~,~
~,o,~,~,~,~,p,s,~,~
~,o,~,~,~,~,p,t,~,~
~,o,~,~,~,~,p,t,~,~
~,~,~,~,~,~,~,~,~,~
~,~,~,~,~,~,~,~,~,~
~,~,~,~,~,~,~,~,~,~
~,~,~,c,c,c,c,c,~,~
