c,~,~,~,~,~,~,~,~,~
c,~,~,~,~,~,~,~,~,~
c,~,~,~,~,~,~,~,~,~
c,~,~,~,~,s,s,s,~,~
~,~,~,~,~,~,~,~,~,~
~,~,~,~,~,~,~,~,~,~
~,~,~,~,~,~,~,~,~,~
t,p,~,p,p,p,p,~,~,~
t,~,~,~,~,~,~,~,~,~
~,o,o,o,~,~,~,~,~,~
