~,~,~,o,~,~,~,~,~,~
~,~,~,o,~,~,~,~,~,~
t,~,~,o,~,~,~,~,~,~
t,~,~,~,~,p,p,p,~,~
~,~,~,~,~,~,~,~,~,~
~,~,c,~,~,~,~,~,s,~
~,~,c,~,~,~,~,~,s,~
~,~,c,~,~,~,~,~,s,~
~,~,c,~,~,~,~,~,s,~
~,~,~,~,~,~,~,~,s,~
