~,~,~,~,~,s,~,~,~,~
~,~,~,~,~,p,~,~,~,~
~,~,~,~,~,p,~,~,~,~
~,~,~,~,~,p,t,t,~,~
~,~,~,~,~,p,~,~,~,~
c,c,c,c,~,p,~,~,~,~
~,~,~,~,~,s,~,~,~,~
~,~,~,~,~,s,~,~,~,~
~,~,~,~,~,~,~,~,~,~
o,o,o,~,~,~,~,~,~,~
